<?xml version="1.0" encoding="UTF-8"?>
<svg fill="#1C3554" version="1.1" viewBox="0 0 100 100" xmlns="http://www.w3.org/2000/svg">
<g transform="translate(0 -952.36)">
<path d="m50 959.36c-23.713 0-43 19.287-43 43 0 23.713 19.287 43 43 43 23.713 0 43-19.287 43-43 0-23.713-19.287-43-43-43zm-3 6.5v13.469h-10.406c2.4368-6.8671 5.9908-11.896 10.406-13.469zm6 0c4.4155 1.5725 7.9694 6.6017 10.406 13.469h-10.406v-13.469zm-16.844 2.1875c-2.1981 3.1084-4.0781 6.923-5.5625 11.281h-9.5625c3.9487-4.9662 9.1446-8.8728 15.125-11.281zm27.688 0c5.9804 2.4084 11.176 6.315 15.125 11.281h-9.5625c-1.4844-4.3583-3.3644-8.1728-5.5625-11.281zm-46.688 17.281h11.719c-1.0056 4.3402-1.6263 9.0662-1.8125 14h-13.938c0.40577-5.0173 1.8305-9.7527 4.0312-14zm17.688 0h12.156v14h-13.938c0.18021-4.912 0.78405-9.68 1.7812-14zm18.156 0h12.156c0.9972 4.32 1.601 9.088 1.7812 14h-13.938v-14zm18.125 0h11.719c2.2008 4.2473 3.6255 8.9827 4.0312 14h-13.938c-0.1862-4.9338-0.80691-9.6598-1.8125-14zm-58 20h13.938c0.18086 4.9446 0.80855 9.6522 1.8125 14h-11.75c-2.1914-4.2489-3.6028-8.9839-4-14zm19.938 0h13.938v14h-12.156c-0.99568-4.3228-1.6031-9.0862-1.7812-14zm19.938 0h13.938c-0.17811 4.9138-0.78557 9.6772-1.7812 14h-12.156v-14zm19.938 0h13.938c-0.39722 5.0161-1.8086 9.7511-4 14h-11.75c1.004-4.3478 1.6316-9.0554 1.8125-14zm-51.938 20h9.5625c1.4878 4.3812 3.3846 8.2244 5.5938 11.344-5.9973-2.4153-11.204-6.3577-15.156-11.344zm15.562 0h10.438v13.5c-4.4233-1.5753-8.0004-6.6143-10.438-13.5zm16.438 0h10.438c-2.4371 6.8857-6.0142 11.925-10.438 13.5v-13.5zm16.438 0h9.5625c-3.9527 4.9861-9.159 8.9285-15.156 11.344 2.2091-3.1194 4.106-6.9626 5.5938-11.344z" color="#000000" fill="#1C3554" overflow="visible" style="block-progression:tb;text-indent:0;text-transform:none"/>
</g>
</svg>